*** Framework Changelog ***

 2014.01.21 - version 2.6
 * fixed bugs for reservation
 * dashboard responsive
 
 2013.12.13 - version 2.5.9
 * wp 3.8 fixes
 * added multiupload and map options in slider
 
 2013.11.21 - version 2.5.8
 * fixed multiupload attachments spam
 * fixed php strict notice

 2013.11.21 - version 2.5.7
 * added new function for resize images
 * removed timthumb

 2013.11.07 - version 2.5.6
 * added new multiupload option
 * minor fixed in seek extension
 
 2013.09.06 - version 2.5.5
 * qTranslate Problem

 2013.08.14 - version 2.5.4
 * contact form, reservation form solved bugs

 2013.08.02 - version 2.5.3
 * wp 3.6 fixes

 2013.07.22 - version 2.5.2
 * seek extension improvements  

 2013.05.17 - version 2.5.1
 * minify js and css option
 * twitter API 1.1

 2013.05.23 - version 2.5
 * disable SEO tab bug solved
 * qtranslate plugin support

 2013.05.20 - version 2.4.9
 * solved bugs on CF and RF extensions
 * add shortcode functionality improvement
 * decode options without qtranslate tags

 2013.05.15 - version 2.4.8
 * added minify extension
 * changed disable->enable concept on dashboard

 2013.04.22 - version 2.4.7
 * seo title for taxonomies
 * list reservation correction

 2013.04.15 - version 2.4.6
 * improvements on reservation form extension

 2013.04.02 - version 2.4.5
 * fixed twitter error
 * added user reservation pagination
 * other minor fixes

 2013.03.19 - version 2.4.4
 * minor fixes
 
 2013.03.04 - version 2.4.3
 * reservation form columns changes
 * sidebar for multiple taxonomies
 * qtranslate terms
 * minor fixes

 2013.02.20 - version 2.4.2
 * fixed problems with post titles containing html on import (and export)
 * megamenu fixes
 * fixed slider translation with wpml
 * other minor bug fixes

 2013.02.13 - version 2.4.1
 * bug fixes

 2013.01.29 - version 2.4
 * major changes that fixes bugs with slashes in global variables $_GET, $_POST, $_REQUEST, $_COOKIE
 * other minor bug fixes

 2013.01.14 - version 2.3
 * css and javascript fixes for wp3.5
 * new extension: megamenu

 2012.12.28 - version 2.2.14
 * bug fixes

 2012.12.04 - version 2.2.13
 * wp 3.5 compatibility
 * multiple email sending contact form

 2012.11.20 - version 2.2.12
 * contact & reservation forms bug fixes
 * seek extension fixes and optimisations
 * other minor bug fixes

 2012.11.12 - version 2.2.11
 * bug fixes
 * css fixes for wordpress 3.5

 2012.10.12 - version 2.2.10
 * reservation form important issue solved

 2012.10.10 - version 2.2.9
 * upload-form in wordpress 3.5
 * javascript fixes

 2012.10.09 - version 2.2.8
 * all extensions can auto disable itself if no config folder found in theme_config/
 * fixed bug in slider extension with "auto resize images" option
 * fixed import bugs (try directly copy files if remote/url method failed)
 * fixed bugs with use of $ in javascript (var $ = jQuery)
 * fixed bug: shortcodes placed in child-theme not properly loaded
 * translations corrections __('...', 'tfuse')

 2012.10.01 - version 2.2.7
 * fixed bug in shortcodes extension

 2012.09.27 - version 2.2.6
 * fixed some notices  in reservation form
 * Added filters for Reservation form menu titles
 * added filter for reservation form tabs

 2012.09.25 - version 2.2.5
 * fixed import bugs
 * fixed reservation form bugs
 * slider extension not load if no config folder found in theme_config/
 * admin ui: background correction for add shortcode button on post edit page
 * admin ui: first panel is open in every tab on tfuse framework page

 2012.09.12 - version 2.2.4
 * photoartist slider problem solved

 2012.09.05 - version 2.2.3
 * fixed small bugs

 2012.08.23 - version 2.2.2
 * fixed somme bugs

 2012.08.21 - version 2.2.1
 * fixed mysql import bug

 2012.08.20 - version 2.2
 * added Seek extension
 * added MEM in core

 2012.08.17 - version 2.1.7
 * fixed somme minor bugs

 2012.08.16 - version 2.1.6
 * export/import contact form options

 2012.08.15 - version 2.1.5
 * fixed bug #Failed to import XML file

 2012.08.10 - version 2.1.4
 * fixed bug with captcha and reset button text in contact form extension

 2012.08.9 - version 2.1.3
 * contact form updates

 2012.08.3 - version 2.1.2
 * fixed issues with tabs

 2012.07.19 - version 2.1.1
 * fixed bug with including  javascript files from child theme

 2012.06.20 - version 2.1
 * added contact form extension

 2012.06.14 - version 2.0.8
 * fixed bug with css/js inlcude path

 2012.06.14 - version 2.0.7
 * wp 3.4 fix

 2012.06.13 - version 2.0.6
 * fixed bug with update for multisite
 * fixed bug with importer

 2012.05.25 - version 2.0.5
 * fixed bug in SEO extension
 * fixed bug with stripslashes on save slider

 2012.04.20 - version 2.0.4
 * fixed bug with update on translated wordpress
 * SEO extension added

 2012.04.19 - version 2.0.3
 * fixed bug when saving textareas

 2012.04.18 - version 2.0.2
 * fixed issues with php5.3 and minifyer
 * some updater bugs

 2012.03.20 - version 2.0.1
 * TimThumb updated to version 2.8.10
 * WordPress Importer updated to version 0.6
 * prettyPhoto version 3.1.4 inlcuded in framework
 * added innerdocs functionality
 * backup theme files before update

 2012.02.27 - version 2.0
 * First release!